{
  "name": "Client",
  "fields": [
    {
      "fieldName": "firstName",
      "fieldType": "String",
      "fieldValidateRules": ["required", "maxlength"],
      "fieldValidateRulesMaxlength": "50"
    },
    {
      "fieldName": "lastName",
      "fieldType": "String",
      "fieldValidateRules": ["required", "maxlength"],
      "fieldValidateRulesMaxlength": "50"
    },
    {
      "fieldName": "email",
      "fieldType": "String",
      "fieldValidateRules": ["unique", "maxlength"],
      "fieldValidateRulesMaxlength": "50"
    },
    {
      "fieldName": "address",
      "fieldType": "String",
      "fieldValidateRules": ["maxlength"],
      "fieldValidateRulesMaxlength": "50"
    },
    {
      "fieldName": "phone",
      "fieldType": "String",
      "fieldValidateRules": ["maxlength"],
      "fieldValidateRulesMaxlength": "20"
    }
  ],
  "relationships": [],
  "entityTableName": "client",
  "dto": "no",
  "pagination": "pagination",
  "service": "serviceImpl",
  "jpaMetamodelFiltering": true,
  "fluentMethods": true,
  "readOnly": false,
  "embedded": false,
  "applications": "*",
  "changelogDate": "20210607130226"
}
